<svg width="33" height="31" viewBox="0 0 33 31" fill="none" xmlns="http://www.w3.org/2000/svg">
<path d="M3.6899 0H28.6454C30.6277 0 32.2108 1.60473 32.2108 3.58958C32.2108 5.57476 30.6277 7.15827 28.6454 7.15827H3.6899C1.72781 7.15827 0.124512 5.57476 0.124512 3.58958C0.124512 1.60473 1.72781 0 3.6899 0Z" fill="#282D2F"/>
<path d="M3.75306 11.9309H28.7089C30.6706 11.9309 32.2742 13.5147 32.2742 15.4993C32.2742 17.4844 30.6706 19.0898 28.7089 19.0898H3.75306C1.77007 19.0898 0.187988 17.4844 0.187988 15.4993C0.187988 13.5144 1.77007 11.9309 3.75306 11.9309Z" fill="#282D2F"/>
<path d="M3.71058 23.8411H28.6664C30.6487 23.8411 32.2318 25.4458 32.2318 27.43C32.2318 29.3939 30.6487 31 28.6664 31H3.71058C1.72759 31 0.145508 29.3939 0.145508 27.43C0.145508 25.4458 1.72759 23.8411 3.71058 23.8411Z" fill="#282D2F"/>
</svg>
