<svg width="132" height="132" viewBox="0 0 132 132" fill="none" xmlns="http://www.w3.org/2000/svg">
<path d="M115.028 131.224C-4.92747 131.224 136.232 131.224 16.2768 131.224C7.27003 131.143 0.0403891 123.833 0 114.826C0 82.0302 0 49.1939 0 16.398C0.0403891 7.3912 7.27003 0.0807781 16.2364 0H28.5147H114.988C123.954 0.0807781 131.184 7.3912 131.224 16.398C131.224 49.1939 131.224 82.0302 131.224 114.826C131.224 123.994 124.6 131.143 115.028 131.224Z" fill="#E60000"/>
<path d="M89.0172 67.5703H61.1891C60.0986 67.5703 59.2505 66.6817 59.2505 65.6316C59.2505 64.5815 60.139 63.6929 61.1891 63.6929H89.0172C90.1077 63.6929 90.9559 64.5815 90.9559 65.6316C90.9559 66.6817 90.1077 67.5703 89.0172 67.5703ZM43.1352 67.5703H40.3888C37.8846 67.5703 35.6632 66.5606 34.1689 64.7835C32.6745 62.9659 32.0686 60.5022 32.5129 57.9981L33.6842 51.8186C33.8861 50.7684 34.8959 50.0414 35.946 50.2434C36.9961 50.4453 37.7231 51.4551 37.5211 52.5052L36.3499 58.6847C36.1075 60.0579 36.3903 61.3504 37.1576 62.2793C37.8846 63.1679 39.0559 63.6929 40.3888 63.6929H43.1352C44.2257 63.6929 45.0739 64.5815 45.0739 65.6316C45.0739 66.6817 44.2257 67.5703 43.1352 67.5703ZM107.919 67.5299C106.91 67.5299 106.061 66.7625 105.981 65.7124C105.9 64.6219 106.708 63.6929 107.798 63.6122C111.191 63.3698 114.422 60.4618 114.987 57.1499L117.815 41.1558C118.299 37.5208 117.128 33.9666 114.341 30.6547C109.414 24.7983 100.043 20.6786 91.0367 20.3151H47.2549C46.1644 20.3151 45.3162 19.4265 45.3162 18.3764C45.3162 17.3263 46.2048 16.4377 47.2549 16.4377H91.1174C101.255 16.8416 111.756 21.5268 117.37 28.1506C120.844 32.2703 122.379 36.9958 121.732 41.7617L118.865 57.8365C117.976 62.8852 113.251 67.126 108.121 67.5299C108.04 67.5299 107.96 67.5299 107.919 67.5299Z" fill="white"/>
<path d="M113.089 42.9331C99.9227 42.9331 93.4604 42.1657 90.3504 38.3288C87.1193 34.3302 88.4118 27.9084 90.7543 17.6899L94.349 18.5381C92.3295 27.4237 91.1582 33.4417 93.2181 36.0266C95.803 39.2577 104.729 39.3789 119.067 39.2173L119.107 42.8927C116.967 42.9331 114.947 42.9331 113.089 42.9331Z" fill="white"/>
<path d="M66.8444 27.8276H26.6573C25.5668 27.8276 24.7186 26.9391 24.7186 25.889C24.7186 24.8389 25.5668 23.9099 26.6573 23.9099H66.8444C67.9349 23.9099 68.7831 24.7985 68.7831 25.8486C68.7831 26.8987 67.9349 27.8276 66.8444 27.8276Z" fill="white"/>
<path d="M14.4183 36.1482C13.3278 36.1482 12.4796 35.2596 12.4796 34.2095C12.4796 33.1594 13.3278 32.2305 14.4183 32.2305H54.6054C55.6959 32.2305 56.5441 33.119 56.5441 34.1691C56.5441 35.2193 55.6555 36.1078 54.6054 36.1078L14.4183 36.1482Z" fill="white"/>
<path fill-rule="evenodd" clip-rule="evenodd" d="M53.677 57.4736C58.6852 57.4736 61.9971 61.5125 61.0682 66.5208C60.1392 71.529 55.3329 75.5679 50.3247 75.5679C45.3164 75.5679 42.0045 71.529 42.9335 66.5208C43.8624 61.5529 48.6687 57.4736 53.677 57.4736Z" fill="white"/>
<path d="M50.3241 77.5461C47.3353 77.5461 44.71 76.3748 42.9329 74.2342C41.1154 72.0532 40.4288 69.1856 40.9942 66.1564C42.0847 60.1788 47.6584 55.4937 53.636 55.4937C56.6248 55.4937 59.2501 56.6649 61.0272 58.8056C62.8447 60.9866 63.5313 63.8542 62.9659 66.8834C61.8754 72.861 56.3017 77.5461 50.3241 77.5461ZM53.6764 59.4114C49.6375 59.4114 45.5986 62.8445 44.8716 66.8834C44.5081 68.7413 44.912 70.478 45.9621 71.7301C46.9718 72.9417 48.5066 73.6283 50.3241 73.6283C54.363 73.6283 58.4019 70.1953 59.1289 66.1564C59.4924 64.2985 59.0885 62.5617 58.0384 61.3097C57.0287 60.098 55.4939 59.4114 53.6764 59.4114Z" fill="white"/>
<path fill-rule="evenodd" clip-rule="evenodd" d="M99.5583 57.4736C104.567 57.4736 107.878 61.5125 106.95 66.5208C106.021 71.529 101.214 75.5679 96.206 75.5679C91.1978 75.5679 87.8859 71.529 88.8148 66.5208C89.7438 61.5529 94.5501 57.4736 99.5583 57.4736Z" fill="white"/>
<path d="M96.2065 77.5461C93.2178 77.5461 90.5925 76.3748 88.8557 74.2342C87.0382 72.0532 86.3516 69.1856 86.9171 66.1564C88.048 60.1788 93.5813 55.4937 99.5992 55.4937C102.588 55.4937 105.213 56.6649 106.99 58.8056C108.808 60.9866 109.495 63.8542 108.929 66.8834C107.758 72.861 102.184 77.5461 96.2065 77.5461ZM99.5588 59.4518C95.5199 59.4518 91.481 62.8849 90.754 66.9238C90.3905 68.7817 90.7944 70.5184 91.8445 71.7704C92.8543 72.9821 94.389 73.6687 96.2065 73.6687C100.245 73.6687 104.284 70.2357 105.011 66.1968C105.375 64.3389 104.971 62.6021 103.921 61.3501C102.911 60.098 101.376 59.4518 99.5588 59.4518Z" fill="white"/>
<path d="M23.5866 44.3473C22.4961 44.3473 21.6479 43.4588 21.6479 42.4086C21.6479 41.3585 22.5365 40.47 23.5866 40.47H63.7737C64.8643 40.47 65.7124 41.3585 65.7124 42.4086C65.7124 43.4588 64.8239 44.3473 63.7737 44.3473H23.5866Z" fill="white"/>
<path d="M51.5368 52.6657H11.3497C10.2592 52.6657 9.41101 51.7771 9.41101 50.727C9.41101 49.6769 10.2996 48.7883 11.3497 48.7883H51.5368C52.6273 48.7883 53.4755 49.6769 53.4755 50.727C53.4755 51.7771 52.6273 52.6657 51.5368 52.6657Z" fill="white"/>
<path fill-rule="evenodd" clip-rule="evenodd" d="M73.0632 57.0692H81.0603L81.3834 55.2517H75.4058L76.2136 50.5666H81.6661L81.9892 48.7491H76.5367L77.2637 44.5486H83.2413L83.5644 42.7715H75.527L73.0632 57.0692Z" fill="white"/>
<path fill-rule="evenodd" clip-rule="evenodd" d="M67.4495 58.4016H85.7861L88.4922 42.8518C88.6134 42.1248 88.1287 41.519 87.4017 41.519H71.7711C71.0441 41.519 70.3171 42.1248 70.196 42.8518L67.4495 58.4016ZM71.8923 40.4285H87.5633C88.8557 40.4285 89.7443 41.519 89.5423 42.8114L86.7959 58.4824C86.5535 59.7748 85.3015 60.8653 84.009 60.8653H68.3381C67.0052 60.8653 66.1571 59.7748 66.359 58.4824L69.1055 42.8114C69.3478 41.519 70.5998 40.4285 71.8923 40.4285Z" fill="white"/>
<path d="M82.9593 99.7604H92.168L92.6526 97.0543H86.9578L87.6848 93.1366H92.8546L93.3393 90.4305H88.1694L88.8157 86.957H94.2682L94.7529 84.251H85.8269L82.9593 99.7604ZM74.1141 99.7604H77.7491L80.0916 87.0782H83.4439L83.969 84.2914H73.589L73.0639 87.0782H76.4162L74.1141 99.7604ZM60.3414 99.7604H69.5501L70.0348 97.0543H64.3399L65.0669 93.1366H70.2367L70.7214 90.4305H65.5516L66.1978 86.957H71.6503L72.135 84.251H63.209L60.3414 99.7604ZM53.0714 86.8763H54.1619C56.1005 86.8763 56.0601 88.1687 55.939 88.8149C55.737 89.9054 54.8485 90.8748 53.4349 90.8748H52.304L53.0714 86.8763ZM47.1746 99.7604H50.8096L51.9405 93.5001C53.2733 93.5001 53.758 93.5001 53.9599 95.6003L54.4042 99.7604H58.2008L57.5142 94.7117C57.2718 92.8538 56.9487 92.248 55.8582 92.1268V92.0865C58.9682 91.4806 59.5336 88.9361 59.6548 88.2899C60.1798 85.4223 58.2008 84.2914 55.6563 84.2914H49.9614L47.1746 99.7604ZM36.5118 99.7604H40.0257L41.197 93.2981H46.084L46.5687 90.5921H41.6816L42.3279 86.9974H47.4169L47.9016 84.2914H39.3795L36.5118 99.7604Z" fill="white"/>
<path d="M100.932 106.625C99.6395 106.343 98.7914 106.1 97.3778 106.1C92.1676 106.1 91.279 110.058 91.1982 110.503C90.1885 116.036 96.57 114.582 96.0045 117.571C95.7622 118.823 94.5505 119.429 93.4196 119.429C92.0464 119.429 91.1982 118.904 90.1885 118.459L89.4211 121.488C90.0673 121.69 91.6021 122.135 93.46 122.135C96.5296 122.135 99.1953 120.358 99.7203 117.45C100.73 111.957 94.389 113.249 94.914 110.422C95.116 109.251 96.1257 108.726 97.297 108.726C98.2663 108.726 99.4376 109.089 100.205 109.533L100.932 106.625ZM82.9589 121.812H86.5939L89.4211 106.343H85.7861L82.9589 121.812ZM74.154 121.812H77.7891L80.1316 109.129H83.4839L84.009 106.343H73.629L73.1039 109.129H76.4562L74.154 121.812ZM65.9955 115.753H62.522L65.5512 109.331H65.5916L65.9955 115.753ZM66.5609 121.812H70.2767L68.1361 106.343H64.1376L56.1405 121.812H59.6544L61.3507 118.338H66.1974L66.5609 121.812ZM64.5414 105.373H66.6013L69.4285 102.142H66.359L64.5414 105.373ZM50.2033 108.968H51.2938C53.2325 108.968 53.1921 110.26 53.071 110.907C52.869 111.997 51.9805 112.966 50.5668 112.966H49.4359L50.2033 108.968ZM44.3469 121.812H47.9819L49.1128 115.551C50.4457 115.551 50.9303 115.551 51.1323 117.651L51.5766 121.812H55.3731L54.6865 116.763C54.4442 114.905 54.1211 114.299 52.9902 114.178V114.138C56.1001 113.532 56.6656 110.987 56.7868 110.341C57.3118 107.473 55.3327 106.343 52.7882 106.343H47.0934L44.3469 121.812ZM37.3192 115.592H39.3791L38.6924 119.065C38.3693 119.227 37.9251 119.267 37.4 119.267C34.6132 119.267 33.7246 117.005 34.2497 114.138C34.5728 112.401 35.9864 108.847 39.8233 108.847C41.4389 108.847 42.489 109.372 43.216 109.695L43.9834 106.666C43.0949 106.383 41.8428 106.06 40.0253 106.06C34.1285 106.06 31.2205 110.18 30.5339 113.976C29.3222 120.6 33.563 122.054 36.4307 122.054C38.9348 122.054 40.8331 121.61 41.7216 121.246L43.2564 112.926H37.8039L37.3192 115.592Z" fill="white"/>
</svg>
