<?xml version="1.0" encoding="utf-8"?>
<!-- Generator: Adobe Illustrator 24.1.2, SVG Export Plug-In . SVG Version: 6.00 Build 0)  -->
<svg version="1.1" id="Camada_1" xmlns="http://www.w3.org/2000/svg" xmlns:xlink="http://www.w3.org/1999/xlink" x="0px" y="0px"
	 viewBox="0 0 27 27" style="enable-background:new 0 0 27 27;" xml:space="preserve">
<style type="text/css">
	.st0{fill:#A8CF45;}
</style>
<path class="st0" d="M7.6,23.7h11.8c0.9,0,1.7-0.7,1.7-1.7v-7.9h1.8c0.4,0,0.8-0.4,0.8-0.8c0-0.2-0.1-0.4-0.2-0.6l-2.4-2.3V4.5
	c0-0.2-0.2-0.4-0.4-0.4h-3.1c-0.2,0-0.4,0.2-0.4,0.4v2.1l-3.6-3.3c-0.1-0.1-0.2-0.1-0.2-0.1c-0.1,0-0.2,0-0.2,0.1l-9.7,9.3
	c-0.1,0.1-0.2,0.3-0.2,0.6c0,0.4,0.4,0.8,0.8,0.8h1.8V22C5.9,22.9,6.7,23.7,7.6,23.7z M3.9,13.4l9.6-9.2l3.9,3.6
	c0.1,0.1,0.2,0.1,0.2,0.1c0.2,0,0.4-0.2,0.4-0.4V4.9h2.3v5.6c0,0.1,0,0.2,0.1,0.3l2.6,2.6h-2.4c-0.2,0-0.4,0.2-0.4,0.4V22
	c0,0.5-0.4,1-1,1H7.6c-0.5,0-1-0.4-1-1v-8.3c0-0.2-0.2-0.4-0.4-0.4H3.9z"/>
</svg>
