<svg width="35" height="30" viewBox="0 0 35 30" fill="none" xmlns="http://www.w3.org/2000/svg">
<path d="M29.1886 0H5.16784C4.50093 -6.04847e-07 3.84056 0.13147 3.2245 0.386894C2.60843 0.642318 2.04877 1.01668 1.57751 1.48858C1.10625 1.96048 0.732633 2.52065 0.478039 3.13705C0.223444 3.75346 0.0928622 4.414 0.0937604 5.08092V18.4478C0.0924125 19.115 0.222663 19.7759 0.477056 20.3927C0.731449 21.0095 1.10499 21.5701 1.5763 22.0423C2.0476 22.5146 2.60742 22.8893 3.22371 23.1449C3.83999 23.4005 4.50064 23.5321 5.16784 23.5321H6.92754V27.9741C6.92754 30.0823 8.19521 30.6358 9.74306 29.2042L15.873 23.5321H29.1988C29.8652 23.5308 30.5247 23.3982 31.1398 23.142C31.7549 22.8857 32.3135 22.5108 32.7838 22.0387C33.254 21.5666 33.6266 21.0065 33.8804 20.3903C34.1341 19.7742 34.264 19.1141 34.2627 18.4478V5.08092C34.2636 4.414 34.133 3.75346 33.8784 3.13705C33.6238 2.52065 33.2502 1.96048 32.7789 1.48858C32.3077 1.01668 31.748 0.642318 31.1319 0.386894C30.5159 0.13147 29.8555 -6.04847e-07 29.1886 0ZM10.2488 14.0366C9.85845 14.0393 9.47619 13.9256 9.15073 13.7102C8.82527 13.4947 8.57136 13.1872 8.42139 12.8268C8.27141 12.4665 8.23218 12.0696 8.30868 11.6869C8.38518 11.3041 8.57395 10.9528 8.85091 10.6778C9.12788 10.4028 9.48049 10.2165 9.86377 10.1427C10.247 10.0688 10.6436 10.1109 11.0029 10.2634C11.3622 10.4159 11.6679 10.6719 11.8811 10.9989C12.0943 11.3259 12.2052 11.7089 12.1998 12.0992C12.1944 12.6137 11.9867 13.1054 11.6216 13.468C11.2565 13.8306 10.7633 14.0348 10.2488 14.0366ZM17.1577 14.0366C16.7694 14.0332 16.3909 13.9149 16.0698 13.6965C15.7488 13.4781 15.4996 13.1695 15.3538 12.8096C15.2081 12.4497 15.1722 12.0547 15.2507 11.6744C15.3293 11.2942 15.5188 10.9457 15.7952 10.6731C16.0717 10.4004 16.4228 10.2158 16.8041 10.1425C17.1854 10.0693 17.5799 10.1106 17.9377 10.2614C18.2955 10.4121 18.6006 10.6656 18.8145 10.9896C19.0284 11.3137 19.1415 11.6938 19.1395 12.0821C19.1323 12.6033 18.9205 13.1007 18.5497 13.467C18.1789 13.8334 17.6789 14.0392 17.1577 14.04V14.0366ZM24.1077 14.0366C23.7191 14.0386 23.3386 13.9254 23.0144 13.7112C22.6902 13.497 22.4368 13.1914 22.2862 12.8332C22.1357 12.475 22.0947 12.0802 22.1685 11.6987C22.2423 11.3172 22.4276 10.9661 22.701 10.6899C22.9743 10.4137 23.3234 10.2248 23.7041 10.147C24.0848 10.0692 24.48 10.106 24.8398 10.2528C25.1996 10.3997 25.5078 10.6499 25.7253 10.9718C25.9429 11.2938 26.0601 11.673 26.0621 12.0616C26.0644 12.32 26.0155 12.5764 25.9184 12.8158C25.8213 13.0553 25.6778 13.2733 25.4962 13.4571C25.3145 13.641 25.0984 13.7871 24.8601 13.8871C24.6218 13.9872 24.3661 14.0391 24.1077 14.04V14.0366Z" fill="#EB6A18"/>
</svg>
