{
	"flex-layout.col#atendimentos":{
		"children": [
            "flex-layout.row#atendimento1",
			"flex-layout.row#atendimento2",
			"flex-layout.row#atendimento3",
			"flex-layout.row#atendimento4"
        ],
		"props": {
			"blockClass": ["footer-bottom-atendimentos"]
		}
	},
	"flex-layout.row#atendimento1": {
        "children": ["image#img-atendimento1", "flex-layout.col#atendimento1"],
		"props": {
			"blockClass": ["footer-atendimentos-flex"]
		}
    },
	"flex-layout.col#atendimento1": {
        "children": ["rich-text#atendimento1", "link#atendimento1"],
		"props":{
			"width":"75%"
		}
    },
	"image#img-atendimento1": {
		"props": {
		"src": "assets/images/bot-atendimento1.png",
		"width": "30",
		"link": "/",
		"alt": "Casa do Colono Central de Atendimento",
		"title": "Central de Atendimento",
		"blockClass": "atendimento-bottom"
		}
  	},
	"rich-text#atendimento1":{
		"props": {
		  "textAlignment": "LEFT",
				"textPosition": "LEFT",
				"text": "### Central de Atendimento",
		  "textColor": "base",
		  "blockClass": "atendimento-bottom-text"
		  }
	},
	"link#atendimento1": {
		"props": {
		  "href": "tel:4733331477",
		  "label": " (47) 3333-1477",
		  "target":"_blank",
		  "blockClass": "atendimento-bottom"
		}
	},


	"flex-layout.row#atendimento2": {
        "children": ["image#img-atendimento2", "flex-layout.col#atendimento2"],
		"props": {
			"blockClass": ["footer-atendimentos-flex"]
		}
    },
	"flex-layout.col#atendimento2": {
        "children": ["rich-text#atendimento2", "link#atendimento2"],
		"props":{
			"width":"75%"
		}
    },
	"image#img-atendimento2": {
		"props": {
		"src": "assets/images/bot-atendimento2.png",
		"width": "30",
		"link": "/",
		"alt": "Casa do Colono Central de Atendimento",
		"title": "Central de Atendimento",
		"blockClass": "atendimento-bottom"
		}
  	},
	"rich-text#atendimento2":{
		"props": {
		  "textAlignment": "LEFT",
				"textPosition": "LEFT",
				"text": "### Fale no Whatsapp",
		  "textColor": "base",
		  "blockClass": "atendimento-bottom-text"
		  }
	},
	"link#atendimento2": {
		"props": {
		  "href": "https://api.whatsapp.com/send?phone=554733331477&amp;",
		  "label": "(47) 3333-1477",
		  "target":"_blank",
		  "blockClass": "atendimento-bottom"
		}
	},

	"flex-layout.row#atendimento3": {
        "children": ["image#img-atendimento3", "flex-layout.col#atendimento3"],
		"props": {
			"blockClass": ["footer-atendimentos-flex"]
		}
    },
	"flex-layout.col#atendimento3": {
        "children": ["rich-text#atendimento3", "link#atendimento3"],
		"props":{
			"width":"75%"
		}
    },
	"image#img-atendimento3": {
		"props": {
		"src": "assets/images/bot-email.png",
		"width": "30",
		"link": "mailto:casadocolono@agrotimbo.com.br",
		"alt": "Mande-nos e-mail!",
		"title": "Mande-nos e-mail!",
		"blockClass": "atendimento-bottom"
		}
  	},
	"rich-text#atendimento3":{
		"props": {
		  	"textAlignment": "LEFT",
			"textPosition": "LEFT",
			"text": "### Mande-nos e-mail!",
		  	"textColor": "base",
		  	"blockClass": "atendimento-bottom-text"
		  }
	},
	"link#atendimento3": {
		"props": {
		  "href": "mailto:casadocolono@agrotimbo.com.br",
		  "label": "casadocolono@agrotimbo.com.br",
		  "target":"_blank",
		  "blockClass": "atendimento-bottom"
		}
	},
	
	"flex-layout.row#atendimento4": {
        "children": ["image#img-atendimento4", "flex-layout.col#atendimento4"],
		"props": {
			"blockClass": ["footer-atendimentos-flex"]
		}
    },
	"flex-layout.col#atendimento4": {
        "children": ["rich-text#atendimento4"],
		"props":{
			"width":"75%"
		}
    },
	"image#img-atendimento4": {
		"props": {
		"src": "assets/images/bot-horario.png",
		"width": "30",
		"link": "/",
		"alt": "Horário de Atendimento",
		"title": "Horário de Atendimento",
		"blockClass": "atendimento-bottom"
		}
  	},
	"rich-text#atendimento4":{
		"props": {
		  	"textAlignment": "LEFT",
			"textPosition": "LEFT",
			"text": "### Horário de Atendimento \n\n Seg à Sex: 7:30h às 19:30h \n\n Sábado: 7:30h às 20h \n\n Domingo: 7:30h às 12:30h",
		  	"textColor": "base",
		  	"blockClass": "atendimento-bottom-text"
		  }
	},

    "flex-layout.row#footer-bottom": {
		"children": [
            "flex-layout.col#how-to-pay",
            "flex-layout.col#seals",
			"flex-layout.col#lgpd"
        ],
		"props": {
			"blockClass": "footer-bottom-row"
		}
	},
    "flex-layout.col#how-to-pay": {
        "children": ["rich-text#how-to-pay-title", "flex-layout.row#footer-pagamento"],
		"props":{
			"blockClass":"col-pagamento"
		}
    },
    "flex-layout.col#seals": {
        "children": ["rich-text#seals-title", "image#selo-pci"]
    },
	"flex-layout.col#lgpd": {
        "children": ["rich-text#lgpd-texto", "link#lgpd"]
    },

    "rich-text#how-to-pay-title": {
		"props": {
			"textAlignment": "LEFT",
			"textPosition": "LEFT",
			"text": "#### Como pagar",
			"textColor": "c-on-base--inverted",
			"blockClass":"how-pay"
		}
	},
	"flex-layout.row#footer-pagamento":{
		"children": [
			"image#visa",
			"image#mastercard",
			"image#amex",
			"image#hipercard",
			"image#elo",
			"image#boleto"
		],
		"props": {
			"blockClass": "footer-bottom-pagamentos"
		}
	},
	"image#visa": {
		"props": {
		"src": "assets/svg/Visa.svg",
		"width": "75px",
		"link": "",
		"alt": "visa",
		"title": "visa",
		"blockClass": "footer-meios-pagamentos"
		}
  	},
	  "image#mastercard": {
		"props": {
		"src": "assets/svg/Mastercard.svg",
		"width": "75px",
		"link": "",
		"alt": "mastercard",
		"title": "mastercard",
		"blockClass": "footer-meios-pagamentos"
		}
  	},
	  "image#amex": {
		"props": {
		"src": "assets/svg/Amex.svg",
		"width": "75",
		"link": "",
		"alt": "amex",
		"title": "amex",
		"blockClass": "footer-meios-pagamentos"
		}
  	},
	"image#hipercard": {
		"props": {
		"src": "assets/svg/Hipercard.svg",
		"width": "75",
		"link": "",
		"alt": "hipercard",
		"title": "hipercard",
		"blockClass": "footer-meios-pagamentos"
		}
  	},
	"image#elo": {
		"props": {
		"src": "assets/svg/Elo.svg",
		"width": "75",
		"link": "",
		"alt": "elo",
		"title": "Elo",
		"blockClass": "footer-meios-pagamentos"
		}
  	},
	"image#boleto": {
		"props": {
		"src": "assets/svg/Boleto.svg",
		"width": "75",
		"link": "",
		"alt": "Boleto",
		"title": "Boleto",
		"blockClass": "footer-meios-pagamentos"
		}
  	},
	"accepted-payment-methods": {
		"props": {
			"paymentMethods": ["mastercard", "visa", "diners club"],
			"showInColor": true
		}
  	},
    "rich-text#seals-title": {
		"props": {
			"textAlignment": "LEFT",
			"textPosition": "LEFT",
			"text": "#### Loja segura",
			"textColor": "c-on-base--inverted",
			"blockClass":"how-pay"

		}
	},
	"powered-by": {
		"props": {
			"showInColor": true
		}
	},
	"image#selo-pci": {
		"props": {
		"src": "assets/images/loja-segura.png",
		"maxHeight": "62",
		"link": "",
		"alt": "Loja Segura",
		"title": "Loja Segura"
		}
  },
  "rich-text#lgpd-texto":{
	"props": {
	  "textAlignment": "LEFT",
			"textPosition": "LEFT",
			"text": "### LGPD \n\n Para esclarecer quaisquer dúvidas sobre esta Política de Privacidade ou sobre os dados pessoais tratados, o usuário poderá entrar em contato com os responsáveis através do e-mail:",
	  "textColor": "base",
	  "blockClass": "atendimento-bottom-text"
	  }
},
"link#lgpd": {
	"props": {
	  "href": "mailto:LGPD@agrotimbo.com.br",
	  "label": "LGPD@agrotimbo.com.br",
	  "target":"_blank",
	  "blockClass": "bottom-lgpd-link"
	}
}
}