{
   "category-menu#main-menu": {
    "props": {
      "showAllDepartments": false,
      "showSubcategories": false,
      "menuDisposition": "left"
    }
  },
    "category-menu#category-menu-mobile": {
    "props": {
      "showAllDepartments": false,
      "showSubcategories": true,
      "menuDisposition": "center",
      "mobileMode": true
    }
  }
}